  _______      ___   .___________. ___________    __    ____  ___   ____    ____
 /  _____|    /   \  |           ||   ____\   \  /  \  /   / /   \  \   \  /   /
|  |  __     /  ^  \ `---|  |----`|  |__   \   \/    \/   / /  ^  \  \   \/   /
|  | |_ |   /  /_\  \    |  |     |   __|   \            / /  /_\  \  \_    _/
|  |__| |  /  _____  \   |  |     |  |____   \    /\    / /  _____  \   |  |
 \______| /__/     \__\  |__|     |_______|   \__/  \__/ /__/     \__\  |__|

Powered by Spring Boot ${spring-boot.version}