_______   __       _______.  ______   ______   ____    ____  _______ .______     ____    ____
|       \ |  |     /       | /      | /  __  \  \   \  /   / |   ____||   _  \    \   \  /   /
|  .--.  ||  |    |   (----`|  ,----'|  |  |  |  \   \/   /  |  |__   |  |_)  |    \   \/   /
|  |  |  ||  |     \   \    |  |     |  |  |  |   \      /   |   __|  |      /      \_    _/
|  '--'  ||  | .----)   |   |  `----.|  `--'  |    \    /    |  |____ |  |\  \----.   |  |
|_______/ |__| |_______/     \______| \______/      \__/     |_______|| _| `._____|   |__|

Powered by Spring Boot ${spring-boot.version}